index,#,Target,Range,Speed,Max,Formula,Comments
0,1,50,10,6,100,50,Intro
1,2,25,10,6,100,25,-
2,3,15,5,6,100,15,-
3,4,60,10,5,100,60,-
4,5,75,3,5,100,75,-
5,6,25,5,5,100,25,-
6,7,55,2,6,100,55,-
7,8,65,10,6,100,65,Edgy
8,9,15,2,3,100,15,-
9,10,90,5,2,100,90,-
10,11,10,1,5,100,10,-
11,12,50,5,3,100,50,-
12,13,43,5,8,100,43,-
13,14,50,0,8,100,50,-
14,15,55,10,2,100,55,Fast
15,16,75,5,3,100,75,-
16,17,45,3,2,100,45,-
17,18,95,3,2,100,95,-
18,19,50,2,2,100,50,-
19,20,25,1,3,100,25,-
20,21,40,0,2,100,40,-
21,22,55,2,6,100,55,Accuracy
22,23,25,2,6,100,25,-
23,24,75,5,5,100,75,-
24,25,15,2,5,100,15,-
25,26,60,0,4,100,60,-
26,27,35,5,4,100,35,-
27,28,80,0,3,100,80,-
28,29,42,1,2,100,42,-
29,30,99,0,1,100,99,-
30,31,25,2,1,100,25,Fast Acc
31,32,50,1,2,100,50,-
32,33,76,0,2,100,76,-
33,34,54,2,1,100,54,-
34,35,34,3,2,100,34,-
35,36,67,1,2,100,67,-
36,37,80,0,1,100,80,-
37,38,25,2,2,100,25,-
38,39,34,1,2,100,34,-
39,40,87,0,1,100,87,-
40,41,125,10,6,250,50,Intro
41,42,63,10,6,250,25,-
42,43,38,5,6,250,15,-
43,44,150,10,5,250,60,-
44,45,188,3,5,250,75,-
45,46,63,5,5,250,25,-
46,47,138,2,6,250,55,-
47,48,163,10,6,250,65,Edgy
48,49,38,2,3,250,15,-
49,50,225,5,2,250,90,-
50,51,25,1,5,250,10,-
51,52,125,5,3,250,50,-
52,53,108,5,8,250,43,-
53,54,125,0,8,250,50,-
54,55,138,10,2,250,55,Fast
55,56,188,5,3,250,75,-
56,57,113,3,2,250,45,-
57,58,238,3,2,250,95,-
58,59,125,2,2,250,50,-
59,60,63,1,3,250,25,-
60,61,100,0,2,250,40,-
61,62,138,2,6,250,55,Accuracy
62,63,63,2,6,250,25,-
63,64,188,5,5,250,75,-
64,65,38,2,5,250,15,-
65,66,150,0,4,250,60,-
66,67,88,5,4,250,35,-
67,68,200,0,3,250,80,-
68,69,105,1,2,250,42,-
69,70,248,0,1,250,99,-
70,71,63,2,1,250,25,Fast Acc
71,72,125,1,2,250,50,-
72,73,190,0,2,250,76,-
73,74,135,2,1,250,54,-
74,75,85,3,2,250,34,-
75,76,168,1,2,250,67,-
76,77,200,0,1,250,80,-
77,78,63,2,2,250,25,-
78,79,85,1,2,250,34,-
79,80,218,0,1,250,87,-
80,81,250,10,6,500,50,Intro
81,82,125,10,6,500,25,-
82,83,75,5,6,500,15,-
83,84,300,10,5,500,60,-
84,85,375,3,5,500,75,-
85,86,125,5,5,500,25,-
86,87,275,2,6,500,55,-
87,88,325,10,6,500,65,Edgy
88,89,75,2,3,500,15,-
89,90,450,5,2,500,90,-
90,91,50,1,5,500,10,-
91,92,250,5,3,500,50,-
92,93,215,5,8,500,43,-
93,94,250,0,8,500,50,-
94,95,275,10,2,500,55,Fast
95,96,375,5,3,500,75,-
96,97,225,3,2,500,45,-
97,98,475,3,2,500,95,-
98,99,250,2,2,500,50,-
99,100,125,1,3,500,25,-
100,101,200,0,2,500,40,-
101,102,275,2,6,500,55,Accuracy
102,103,125,2,6,500,25,-
103,104,375,5,5,500,75,-
104,105,75,2,5,500,15,-
105,106,300,0,4,500,60,-
106,107,175,5,4,500,35,-
107,108,400,0,3,500,80,-
108,109,210,1,2,500,42,-
109,110,495,0,1,500,99,-
110,111,125,2,1,500,25,Fast Acc
111,112,250,1,2,500,50,-
112,113,380,0,2,500,76,-
113,114,270,2,1,500,54,-
114,115,170,3,2,500,34,-
115,116,335,1,2,500,67,-
116,117,400,0,1,500,80,-
117,118,125,2,2,500,25,-
118,119,170,1,2,500,34,-
119,120,435,0,1,500,87,-
120,121,500,10,6,1000,50,Intro
121,122,250,10,6,1000,25,-
122,123,150,5,6,1000,15,-
123,124,600,10,5,1000,60,-
124,125,750,3,5,1000,75,-
125,126,250,5,5,1000,25,-
126,127,550,2,6,1000,55,-
127,128,650,10,6,1000,65,Edgy
128,129,150,2,3,1000,15,-
129,130,900,5,2,1000,90,-
130,131,100,1,5,1000,10,-
131,132,500,5,3,1000,50,-
132,133,430,5,8,1000,43,-
133,134,500,0,8,1000,50,-
134,135,550,10,2,1000,55,Fast
135,136,750,5,3,1000,75,-
136,137,450,3,2,1000,45,-
137,138,950,3,2,1000,95,-
138,139,500,2,2,1000,50,-
139,140,250,1,3,1000,25,-
140,141,400,0,2,1000,40,-
141,142,550,2,6,1000,55,Accuracy
142,143,250,2,6,1000,25,-
143,144,750,5,5,1000,75,-
144,145,150,2,5,1000,15,-
145,146,600,0,4,1000,60,-
146,147,350,5,4,1000,35,-
147,148,800,0,3,1000,80,-
148,149,420,1,2,1000,42,-
149,150,990,0,1,1000,99,-
150,151,250,2,1,1000,25,Fast Acc
151,152,500,1,2,1000,50,-
152,153,760,0,2,1000,76,-
153,154,540,2,1,1000,54,-
154,155,340,3,2,1000,34,-
155,156,670,1,2,1000,67,-
156,157,800,0,1,1000,80,-
157,158,250,2,2,1000,25,-
158,159,340,1,2,1000,34,-
159,160,870,0,1,1000,87,-
160,161,1000,10,6,2000,50,Intro
161,162,500,10,6,2000,25,-
162,163,300,5,6,2000,15,-
163,164,1200,10,5,2000,60,-
164,165,1500,3,5,2000,75,-
165,166,500,5,5,2000,25,-
166,167,1100,2,6,2000,55,-
167,168,1300,10,6,2000,65,Edgy
168,169,300,2,3,2000,15,-
169,170,1800,5,2,2000,90,-
170,171,200,1,5,2000,10,-
171,172,1000,5,3,2000,50,-
172,173,860,5,8,2000,43,-
173,174,1000,0,8,2000,50,-
174,175,1100,10,2,2000,55,Fast
175,176,1500,5,3,2000,75,-
176,177,900,3,2,2000,45,-
177,178,1900,3,2,2000,95,-
178,179,1000,2,2,2000,50,-
179,180,500,1,3,2000,25,-
180,181,800,0,2,2000,40,-
181,182,1100,2,6,2000,55,Accuracy
182,183,500,2,6,2000,25,-
183,184,1500,5,5,2000,75,-
184,185,300,2,5,2000,15,-
185,186,1200,0,4,2000,60,-
186,187,700,5,4,2000,35,-
187,188,1600,0,3,2000,80,-
188,189,840,1,2,2000,42,-
189,190,1980,0,1,2000,99,-
190,191,500,2,1,2000,25,Fast Acc
191,192,1000,1,2,2000,50,-
192,193,1520,0,2,2000,76,-
193,194,1080,2,1,2000,54,-
194,195,680,3,2,2000,34,-
195,196,1340,1,2,2000,67,-
196,197,1600,0,1,2000,80,-
197,198,500,2,2,2000,25,-
198,199,680,1,2,2000,34,-
199,200,1740,0,1,2000,87,-
200,201,2500,10,6,5000,50,Intro
201,202,1250,10,6,5000,25,-
202,203,750,5,6,5000,15,-
203,204,3000,10,5,5000,60,-
204,205,3750,3,5,5000,75,-
205,206,1250,5,5,5000,25,-
206,207,2750,2,6,5000,55,-
207,208,3250,10,6,5000,65,Edgy
208,209,750,2,3,5000,15,-
209,210,4500,5,2,5000,90,-
210,211,500,1,5,5000,10,-
211,212,2500,5,3,5000,50,-
212,213,2150,5,8,5000,43,-
213,214,2500,0,8,5000,50,-
214,215,2750,10,2,5000,55,Fast
215,216,3750,5,3,5000,75,-
216,217,2250,3,2,5000,45,-
217,218,4750,3,2,5000,95,-
218,219,2500,2,2,5000,50,-
219,220,1250,1,3,5000,25,-
220,221,2000,0,2,5000,40,-
221,222,2750,2,6,5000,55,Accuracy
222,223,1250,2,6,5000,25,-
223,224,3750,5,5,5000,75,-
224,225,750,2,5,5000,15,-
225,226,3000,0,4,5000,60,-
226,227,1750,5,4,5000,35,-
227,228,4000,0,3,5000,80,-
228,229,2100,1,2,5000,42,-
229,230,4950,0,1,5000,99,-
230,231,1250,2,1,5000,25,Fast Acc
231,232,2500,1,2,5000,50,-
232,233,3800,0,2,5000,76,-
233,234,2700,2,1,5000,54,-
234,235,1700,3,2,5000,34,-
235,236,3350,1,2,5000,67,-
236,237,4000,0,1,5000,80,-
237,238,1250,2,2,5000,25,-
238,239,1700,1,2,5000,34,-
239,240,4350,0,1,5000,87,-